# This file uses centimeters as units for non-parametric coordinates.

mtllib BarkBoat_01.mtl
g default
v -0.132107 0.015172 0.223395
v 0.000000 0.015172 0.778603
v 0.115590 0.015172 0.294508
v -0.149235 0.065172 0.228524
v -0.014977 0.065172 0.899975
v 0.233666 0.065172 0.183134
v -0.244155 0.115172 0.143162
v -0.000561 0.115172 1.647219
v 0.311353 0.115172 0.078751
v -0.216067 0.165172 0.141969
v -0.037441 0.165172 1.784937
v 0.261260 0.182543 0.215872
v -0.244934 0.215172 0.287682
v -0.001123 0.215172 1.694664
v 0.289694 0.215172 0.242292
v -0.254336 0.215172 -0.843606
v -0.002059 0.240628 -1.086844
v 0.246293 0.215172 -0.941502
v -0.228954 0.165172 -0.835630
v -0.001869 0.165172 -0.964409
v 0.221292 0.165172 -0.832013
v -0.253651 0.115172 -0.843200
v -0.001679 0.115172 -1.063869
v 0.222915 0.115172 -0.930736
v -0.181807 0.065172 -0.291475
v -0.001489 0.101294 -0.962143
v 0.197994 0.101294 -0.839750
v -0.121814 0.015172 -0.281179
v 0.003731 -0.018084 -0.426636
v 0.173020 0.051294 -0.379076
v 0.001578 0.240628 0.303411
v 0.008163 -0.054206 0.294929
v 0.000438 0.240628 -0.216257
v -0.300420 0.215172 -0.099708
v -0.267912 0.165172 -0.166919
v -0.299543 0.115172 -0.170202
v -0.188737 0.065172 -0.035802
v -0.126367 0.015172 -0.033053
v 0.007587 -0.035755 -0.109829
v 0.140109 0.033623 -0.048268
v 0.258590 0.083623 -0.148885
v 0.318289 0.115172 -0.246425
v 0.289628 0.173670 -0.128917
v 0.321651 0.215172 -0.171918
v -0.030799 0.215172 0.187097
v 0.030799 0.215172 0.187097
v -0.016553 1.759696 0.172851
v 0.016553 1.759696 0.172851
v -0.016553 1.759696 0.139745
v 0.016553 1.759696 0.139745
v -0.030799 0.215172 0.125499
v 0.030799 0.215172 0.125499
v 0.000000 1.685158 0.160688
v 0.000000 0.794141 0.159855
v 0.000000 1.054907 -0.718167
v 0.000000 1.054907 -0.718167
vt 0.237111 0.304624
vt 0.208480 0.279983
vt 0.212776 0.211572
vt 0.282085 0.290460
vt 0.358504 0.703720
vt 0.203237 1.000000
vt 0.176920 0.299292
vt 0.127159 0.276605
vt 0.197574 0.780940
vt 0.268470 0.707072
vt 0.004421 0.691032
vt 0.232475 0.000000
vt 0.373803 0.296286
vt 0.118474 0.701808
vt 0.196977 0.714200
vt 0.225854 0.689994
vt 0.012426 0.263809
vt 0.366747 0.494010
vt 0.168319 0.687488
vt 0.198291 0.688220
vt 0.236796 0.612157
vt 0.202465 0.606711
vt 0.203414 0.482530
vt 0.207081 0.418039
vt 0.203573 0.556636
vt 0.273030 0.578815
vt 0.282091 0.404183
vt 0.059672 0.474428
vt 0.135508 0.393686
vt 0.166842 0.608124
vt 0.135101 0.572005
vt 0.640947 0.646718
vt 0.207585 0.373813
vt 0.573565 0.692137
vt 0.605744 0.646545
vt 0.000000 0.626977
vt 0.246307 0.372896
vt 0.169232 0.366940
vt 0.104806 0.636412
vt 0.159858 0.645670
vt 0.393809 0.641992
vt 0.291966 0.643991
vt 0.239151 0.649062
vt 0.199086 0.646026
vt 0.489880 0.208039
vt 0.620895 0.207716
vt 0.555382 0.207716
vt 0.570534 0.646544
vt 0.574600 0.988535
vt 0.207322 0.305772
vt 0.207199 0.338794
vt 0.570525 0.655949
vt 0.605735 0.655951
vt 0.500144 0.647065
vt 0.535330 0.646718
vt 0.107765 0.331604
vt 0.424410 0.208684
vt 0.304928 0.348481
vt 0.004286 0.323110
vt 0.972709 0.840237
vt 0.165146 0.334136
vt 0.406259 0.358386
vt 0.686398 0.208039
vt 0.409883 0.840377
vt 0.249064 0.341123
vn -0.602565 -0.795594 0.062824
vn 0.004219 -0.959143 0.282889
vn -0.004935 -0.994918 0.100569
vn -0.548037 -0.831059 0.094855
vn 0.571416 -0.815281 0.093815
vn 0.389864 -0.917908 0.073825
vn 0.560676 -0.287910 0.776370
vn -0.809138 -0.574828 0.121938
vn 0.861940 -0.496647 0.101989
vn -0.620931 -0.508436 0.596605
vn -0.954345 -0.265836 0.136222
vn 0.983634 0.017128 0.179365
vn -0.294135 -0.494264 0.818039
vn -0.496882 0.865177 0.067651
vn 0.407353 0.910802 0.067108
vn 0.002492 0.999912 0.013017
vn -0.238167 0.969773 -0.053076
vn 0.008612 0.996429 -0.083995
vn -0.102229 -0.171792 -0.979815
vn -0.933110 -0.037042 -0.357677
vn 0.173999 0.982103 -0.072101
vn 0.959639 -0.140462 -0.243646
vn -0.091999 -0.868085 -0.487816
vn -0.476851 -0.855331 -0.202539
vn 0.797636 -0.025039 -0.602620
vn -0.014284 -0.993127 -0.116172
vn -0.436096 -0.896053 -0.083127
vn 0.282397 -0.951645 -0.120926
vn -0.039559 -0.987212 -0.154424
vn -0.471142 -0.874406 -0.115928
vn 0.374333 -0.923619 -0.082481
vn -0.481093 -0.876512 -0.016634
vn 0.106307 -0.993824 -0.031821
vn 0.031065 -0.998304 0.049242
vn 0.439172 -0.897951 -0.028482
vn 0.449005 -0.893060 -0.028970
vn 0.951521 -0.289424 -0.104123
vn 0.996985 -0.077596 -0.000693
vn 0.272971 0.961928 -0.013439
vn -0.550599 -0.834069 0.034212
vn -0.834464 -0.551008 -0.007717
vn -0.996445 -0.083730 -0.009275
vn -0.249338 0.968337 0.012420
vn -0.000828 0.999999 -0.001142
vn -0.707047 0.013043 0.707047
vn 0.707047 0.013043 0.707047
vn 0.707047 0.013043 0.707047
vn -0.707047 0.013043 0.707047
vn 0.000000 1.000000 0.000000
vn 0.000000 1.000000 0.000000
vn 0.000000 1.000000 0.000000
vn 0.000000 1.000000 0.000000
vn -0.707047 0.013043 -0.707047
vn 0.707047 0.013043 -0.707047
vn 0.707047 0.013043 -0.707047
vn -0.707047 0.013043 -0.707047
vn -1.000000 0.000000 0.000000
vn -1.000000 0.000000 0.000000
vn -1.000000 0.000000 0.000000
vn 1.000000 0.000000 0.000000
vn 1.000000 0.000000 0.000000
vn 1.000000 0.000000 0.000000
s 1
g polySurface2
usemtl initialShadingGroup
f 1/1/1 2/2/2 5/3/3 4/4/4
f 2/2/2 3/7/5 6/8/6 5/3/3
f 4/4/4 5/3/3 8/12/7 7/13/8
f 5/3/3 6/8/6 9/17/9 8/12/7
f 7/5/8 8/6/7 11/9/10 10/10/11
f 8/6/7 9/11/9 12/14/12 11/9/10
f 10/10/11 11/9/10 14/15/13 13/16/14
f 11/9/10 12/14/12 15/19/15 14/15/13
f 13/16/14 14/15/13 31/20/16
f 14/15/13 15/19/15 31/20/16
f 16/21/17 17/22/18 20/25/19 19/26/20
f 17/22/18 18/30/21 21/31/22 20/25/19
f 19/26/20 20/25/19 23/23/23 22/18/24
f 20/25/19 21/31/22 24/28/25 23/23/23
f 22/18/24 23/23/23 26/24/26 25/27/27
f 23/23/23 24/28/25 27/29/28 26/24/26
f 25/27/27 26/24/26 29/33/29 28/37/30
f 26/24/26 27/29/28 30/38/31 29/33/29
f 38/65/32 39/51/33 32/50/34 1/1/1
f 39/51/33 40/61/35 3/7/5 32/50/34
f 3/7/5 40/61/35 41/56/36 6/8/6
f 6/8/6 41/56/36 42/59/37 9/17/9
f 9/11/9 42/36/37 43/39/38 12/14/12
f 12/14/12 43/39/38 44/40/39 15/19/15
f 38/65/32 1/1/1 4/4/4 37/58/40
f 37/58/40 4/4/4 7/13/8 36/62/41
f 36/41/41 7/5/8 10/10/11 35/42/42
f 35/42/42 10/10/11 13/16/14 34/43/43
f 31/20/16 15/19/15 44/40/39 33/44/44
f 13/16/14 31/20/16 33/44/44 34/43/43
f 32/50/34 3/7/5 2/2/2
f 1/1/1 32/50/34 2/2/2
f 34/43/43 33/44/44 17/22/18 16/21/17
f 19/26/20 35/42/42 34/43/43 16/21/17
f 22/18/24 36/41/41 35/42/42 19/26/20
f 25/27/27 37/58/40 36/62/41 22/18/24
f 28/37/30 38/65/32 37/58/40 25/27/27
f 28/37/30 29/33/29 39/51/33 38/65/32
f 29/33/29 30/38/31 40/61/35 39/51/33
f 41/56/36 40/61/35 30/38/31 27/29/28
f 42/59/37 41/56/36 27/29/28 24/28/25
f 43/39/38 42/36/37 24/28/25 21/31/22
f 44/40/39 43/39/38 21/31/22 18/30/21
f 33/44/44 44/40/39 18/30/21 17/22/18
s 3
f 45/57/45 46/45/46 48/55/47 47/54/48
s off
f 47/53/49 48/52/50 50/48/51 49/35/52
s 3
f 49/35/53 50/48/54 52/47/55 51/46/56
f 46/45/46 52/47/55 50/48/54 48/55/47
f 51/46/56 45/63/45 47/32/48 49/35/53
s off
f 53/60/57 55/49/58 54/64/59
f 53/60/60 54/64/61 56/34/62
